Explore MySQL DB
…
character_survey %>% 
  count(name, level)

## # A tibble: 78 x 3
##    name             level                                           n
##    <chr>            <chr>                                       <int>
##  1 Anakin Skywalker Neither favorably nor unfavorably (neutral)    70
##  2 Anakin Skywalker Somewhat favorably                            190
##  3 Anakin Skywalker Somewhat unfavorably                           66
##  4 Anakin Skywalker Unfamiliar (N/A)                                7
##  5 Anakin Skywalker Very favorably                                188
##  6 Anakin Skywalker Very unfavorably                               25
##  7 Boba Fett        Neither favorably nor unfavorably (neutral)   156
##  8 Boba Fett        Somewhat favorably                            119
##  9 Boba Fett        Somewhat unfavorably                           62
## 10 Boba Fett        Unfamiliar (N/A)                               47
## # ... with 68 more rows
…
